<?xml version="1.0" encoding="UTF-8"?>
<svg width="41px" height="41px" viewBox="0 0 41 41" version="1.1" xmlns="http://www.w3.org/2000/svg" xmlns:xlink="http://www.w3.org/1999/xlink">
    <!-- Generator: Sketch 52.3 (67297) - http://www.bohemiancoding.com/sketch -->
    <title>inspect</title>
    <desc>Created with Sketch.</desc>
    <g id="inspect" stroke="none" stroke-width="1" fill="none" fill-rule="evenodd">
        <g transform="translate(3.000000, 3.000000)" fill="#736665" fill-rule="nonzero" id="Shape">
            <path d="M34.2,30.33 L25.07,21.21 C26.5580237,18.9775667 27.3482111,16.3528913 27.34,13.67 C27.34,8.14100111 24.0094114,3.15642306 18.9012825,1.04056679 C13.7931536,-1.07528948 7.91344291,0.0942576953 4.0038503,4.0038503 C0.0942576953,7.91344291 -1.07528948,13.7931536 1.04056679,18.9012825 C3.15642306,24.0094114 8.14100111,27.34 13.67,27.34 C16.3528913,27.3482111 18.9775667,26.5580237 21.21,25.07 L23.73,27.6 L30.33,34.2 C31.412808,35.1785654 33.0726169,35.1366244 34.1046207,34.1046207 C35.1366244,33.0726169 35.1785654,31.412808 34.2,30.33 Z M19.93,22.5 C18.1418779,23.8053214 15.9838674,24.5059741 13.77,24.5 C7.97101013,24.5 3.27,19.7989899 3.27,14 C3.27,8.20101013 7.97101013,3.5 13.77,3.5 C19.5689899,3.5 24.27,8.20101013 24.27,14 C24.2673415,17.3646972 22.6538703,20.5247215 19.93,22.5 Z"></path>
        </g>
    </g>
</svg>